<?xml version="1.0" encoding="utf-8"?>
<!-- Generator: Adobe Illustrator 22.1.0, SVG Export Plug-In . SVG Version: 6.00 Build 0)  -->
<svg version="1.1" id="Capa_1" xmlns="http://www.w3.org/2000/svg" xmlns:xlink="http://www.w3.org/1999/xlink" x="0px" y="0px"
	 viewBox="0 0 445.9 451.9" style="enable-background:new 0 0 445.9 451.9;" xml:space="preserve">
<style type="text/css">
	.st0{fill:none;}
	.st1{fill:#FFFFFF;}
	.st2{fill:#98171D;}
	.st3{fill:#FFCCCC;}
	.st4{fill:#EABBBB;}
	.st5{fill:#F9E1E1;}
	.st6{fill:#D3D3D3;}
	.st7{fill:#969696;}
	.st8{fill:#EAD3B5;}
</style>
<title>salesman</title>
<g id="Capa_2_1_">
	<g id="Capa_1-2">
		<path class="st0" d="M197.3,426.9c-0.4,1.1-1,2.1-1.9,2.9h7.9c-2-1.4-3.9-2.8-5.6-4.5C197.6,425.9,197.5,426.4,197.3,426.9z"/>
		<polygon class="st1" points="145.3,446.2 145.3,437.6 137.5,446.2 		"/>
		<path class="st1" d="M161.2,295.3l-3.2,4.7l-17.9-12.1c-0.2,1.8-0.6,3.5-1.2,5.2c-1.9,4.8-4.6,8.2-8,10
			c-0.3,8.6,7.7,57.3,15.1,99.1c3.3-0.9,6.8-0.7,9.9,0.7l1.7-0.5c1.4-0.5,3-0.7,4.5-0.7l0,0c1.8,0,3.5,0.4,5.2,1l0.8-0.3
			c1.4-0.5,3-0.7,4.5-0.7l0,0c3.8,0,7.5,1.5,10.2,4.1l1,1c-3.5-7.7-5.4-16.1-5.3-24.5V311l36.5,28.4V301c0-17.9-14.5-32.4-32.4-32.4
			h-21.9c-5.8,3.8-12.1,6.7-18.6,8.8c-1.1,0.3-2.1,0.6-3.2,0.9l-1,0.3l-1,0.3L161.2,295.3z"/>
		<path class="st1" d="M107.5,304c-3.4-1.8-6.1-5.1-8-10c-0.6-1.7-1-3.6-1.2-5.4L79.6,301l-3.2-4.8l25.3-16.7
			c-8.4-2-16.3-5.4-23.5-10.1H56.3c-17.9,0-32.4,14.5-32.4,32.4v32.6l36.5-22.7v72.9c0,8.2,6.7,14.9,14.9,14.9h18.1
			C100.4,358.6,107.8,312.3,107.5,304z"/>
		<path class="st1" d="M74.6,439.5c-8.1,0-16.1-1.7-23.5-5.1v11.8h50.3l-6.2-6.7H74.6z"/>
		<path d="M23.9,310.9V301c0-17.9,14.5-32.4,32.4-32.4h21.9c-1.5-0.9-2.9-1.9-4.3-3c-1.2-0.9-2.3-1.8-3.5-2.8H56.3
			c-21.1,0-38.1,17.1-38.1,38.2v9.9H23.9z"/>
		<path d="M160.7,268.6h21.9c17.9,0,32.4,14.5,32.4,32.4v9.9h5.7V301c0-21.1-17.1-38.1-38.1-38.1h-14.2
			C166,264.9,163.4,266.8,160.7,268.6z"/>
		<path d="M51.1,446.2v-11.8c-2-0.9-3.9-1.9-5.7-3v14.9L51.1,446.2z"/>
		<path class="st2" d="M134.2,366.7c-11.1-66.5-9.6-67.1-6.7-68.3c2.5-1,4.6-3.5,6.1-7.4c0.6-2,0.9-4.1,1-6.2l-6.4-4.6l-0.7,0.1
			l-1,0.1c-0.8,0.1-1.7,0.1-2.6,0.2l-1.1,0.1c-1.2,0-2.3,0.1-3.5,0.1l0,0c-2.9,0-5.9-0.2-8.8-0.5l-6.8,4.9c0.1,2,0.4,4,1,5.9
			c1.6,3.9,3.7,6.4,6.2,7.4c3,1.1,4.5,1.7-6.4,68.3c-1.8,11.1-3.7,22.2-5.4,32H134v7.3l6.6-2.1C138.7,393,136.4,379.8,134.2,366.7z"
			/>
		<path class="st2" d="M136,435.4h-2v4.1h-31l6.2,6.7h20.6L140,435C138.7,435.3,137.3,435.4,136,435.4z"/>
		<path d="M131,303.1c3.4-1.8,6.1-5.2,8-10c0.6-1.7,1-3.4,1.2-5.2l-11.4-7.8l-0.4,0.1l6.4,4.6c-0.1,2.1-0.4,4.2-1,6.2
			c-1.6,3.9-3.6,6.4-6.1,7.4c-3,1.2-4.5,1.8,6.6,68.3c2.2,13.1,4.5,26.3,6.4,37.2l5-1.6l0.4-0.1C138.7,360.4,130.8,311.6,131,303.1z
			"/>
		<path d="M144.5,433.5c-1.4,0.7-3,1.2-4.5,1.5l-10.2,11.2h7.8l7.8-8.6v-4.1L144.5,433.5z"/>
		<path d="M111,298.4c-2.5-1-4.6-3.5-6.2-7.4c-0.6-1.9-0.9-3.9-1-5.9l6.8-4.9l-0.8-0.1l-11.6,7.6c0.2,1.8,0.6,3.7,1.2,5.4
			c1.9,4.8,4.6,8.1,8,10c0.3,8.3-7.1,54.6-14.1,95.6h5.8c1.7-9.8,3.6-20.9,5.4-32C115.5,300.1,114,299.6,111,298.4z"/>
		<polygon points="95.3,439.5 101.4,446.2 109.2,446.2 103,439.5 		"/>
		<path d="M76.5,295.3l3.2,4.8l18.7-12.3l11.6-7.6c-2.7-0.3-5.5-0.8-8.2-1.5L76.5,295.3z"/>
		<path d="M140.2,287.9l17.8,12.1l3.2-4.7l-24.4-16.6l-1.4,0.3l-1,0.2c-1.1,0.2-2.1,0.4-3.2,0.6h-0.1c-0.8,0.1-1.5,0.2-2.3,0.3
			L140.2,287.9z"/>
		<path class="st3" d="M150.6,94.2c-25.7,2.8-76.2-4.5-79.2,14.7c-11.4,58-7.5,109-2.1,125c5.1,15.3,21.3,41.2,54.2,41.1
			c37.2-2.2,66.3-32.9,66.4-70.2V92C177.6,96.8,161.9,96.6,150.6,94.2z"/>
		<path class="st4" d="M138.9,278.2c1.1-0.3,2.1-0.6,3.2-0.9C141,277.7,139.9,278,138.9,278.2z"/>
		<path class="st4" d="M124,280.6c0.9,0,1.7-0.1,2.6-0.2C125.8,280.5,124.9,280.5,124,280.6z"/>
		<path class="st4" d="M119.5,280.7c1.2,0,2.3,0,3.5-0.1C121.8,280.7,120.7,280.7,119.5,280.7z"/>
		<path class="st4" d="M128.7,280.2c0.8-0.1,1.5-0.2,2.3-0.3c-1.1,0.2-2.3,0.3-3.4,0.4l0.7-0.1L128.7,280.2z"/>
		<path class="st4" d="M136.8,278.8l1-0.3c-0.8,0.2-1.6,0.4-2.4,0.5L136.8,278.8z"/>
		<path class="st4" d="M134.4,279.3c-1.1,0.2-2.1,0.4-3.2,0.6C132.3,279.7,133.3,279.5,134.4,279.3z"/>
		<path class="st4" d="M73.1,231c-5.3-16-8.8-59,0-115c3-19.2,51.8-19,77.5-21.8h-0.2c-24.4-5.4-87.5-24.7-87.8,2.4
			c-0.3,31-5,52.8-9.5,66.7V196l0,0v2.9h-4v5.8c0,38.9,31.5,70.3,70.4,70.4c1.3,0,2.7,0,4-0.1C94.4,267.7,78.2,246.2,73.1,231z"/>
		<path d="M78.2,268.6c9.5,6.2,20.4,10.1,31.7,11.5l0.8,0.1c2.9,0.3,5.9,0.5,8.8,0.5l0,0c1.2,0,2.3,0,3.5-0.1l1.1-0.1
			c0.9,0,1.7-0.1,2.6-0.2l1-0.1c1.1-0.1,2.3-0.3,3.4-0.4h0.1c1.1-0.2,2.1-0.4,3.2-0.6l1-0.2c0.8-0.2,1.6-0.4,2.4-0.5l1-0.3
			c1.1-0.3,2.1-0.6,3.2-0.9c6.6-2.1,12.9-5,18.6-8.8c21.7-14,34.9-38.1,34.9-63.9V76.1c0-42-34-76-76-76.1h-0.3
			c41.9,0.2,75.8,34.2,75.8,76.1v13.5c-1.6,0.9-3.3,1.7-5.1,2.4v112.7c0,37.3-29.1,68.1-66.4,70.2c-1.3,0.1-2.7,0.1-4,0.1
			c-38.8,0-70.3-31.5-70.4-70.4v-5.8h-0.9c-1.6,0-3.3-0.2-4.9-0.6v6.4l0,0c0,7.7,1.1,15.3,3.4,22.6c0.7,2.4,1.6,4.7,2.5,7
			c2.9,6.8,6.7,13.1,11.4,18.8c0.8,0.9,1.6,1.9,2.4,2.8c2.3,2.5,4.7,4.9,7.3,7c1.1,1,2.3,1.9,3.5,2.8
			C75.3,266.7,76.8,267.6,78.2,268.6z"/>
		<path class="st5" d="M178.2,196c0.5,29.1-9.1,44.3-15.6,54.4c13.8-10.4,25.1-22.3,24.1-79c-0.4-24.8-0.6-36.8-0.9-49.1
			c-0.2-13.4-8.3-11.3-8.1-2.1C178.1,141.7,177.4,150,178.2,196z"/>
		<path class="st5" d="M136.4,213c-2.2,0.2-3.9,2.2-3.6,4.5s2.2,3.9,4.5,3.6c2-0.2,3.5-1.9,3.6-3.9
			C140.2,215.1,138.5,213.5,136.4,213z"/>
		<path d="M48.3,157.1h4.8v2.9l0,0v3.3c4.5-13.9,9.1-35.7,9.5-66.7c0.3-27.1,63.4-7.8,87.8-2.5h0.2c11.4,2.4,27,2.6,39.3-2.2
			c1.8-0.7,3.5-1.5,5.1-2.4V76.1c0-41.9-33.9-75.9-75.8-76.1h-0.3c-42,0-76.1,34.1-76.1,76.1l0,0v81.8
			C44.5,157.4,46.4,157.1,48.3,157.1z"/>
		<path class="st1" d="M215.1,383.8v-72.9h-30.8v71.2c-0.1,20.7,12.2,39.4,31.2,47.7h14.4l5.8-25.4
			C224.3,404.4,215.1,395.1,215.1,383.8z"/>
		<path d="M215.1,310.9L215.1,310.9v72.9c0,11.4,9.2,20.6,20.6,20.6l1.3-5.7h-1.3c-8.2,0-14.9-6.7-14.9-14.9v-72.9H215.1z"/>
		<path d="M184.2,382.1v-71.2h-5.7v71.2c0,8.5,1.8,16.8,5.3,24.5l11.3,10.8c2.1,2,3.1,5,2.5,7.9c1.8,1.6,3.7,3.1,5.6,4.5h12
			C196.4,421.6,184.2,402.8,184.2,382.1z"/>
		<path class="st3" d="M155.2,425.1c-0.1-0.1-0.2-0.1-0.4-0.1c-0.1,0-0.3,0.1-0.4,0.2l-2.9,3.2l7.8,0.6L155.2,425.1z"/>
		<path d="M145.3,433.6v-0.5c-0.3,0.1-0.6,0.3-0.8,0.4L145.3,433.6z"/>
		<path d="M151.5,428.3l-0.4,0.5c-0.3,0.4-0.7,0.7-1,1h10.2l-1-0.9L151.5,428.3z"/>
		<path class="st3" d="M187.1,426c0.5,0.5,1.3,0.8,2,0.8h0.1c1.7,0,3-1.4,2.9-3.1c0-0.8-0.4-1.5-0.9-2.1l-12.4-11.8
			c-1.3-1.2-2.9-2-4.6-2.4l10.5,10C187,419.7,187.9,422.9,187.1,426z"/>
		<path d="M197.7,425.3c0.5-2.9-0.4-5.8-2.5-7.9l-11.3-10.8l-1-1c-2.7-2.6-6.4-4.1-10.2-4.1l0,0c-1.5,0-3,0.2-4.5,0.7l-0.8,0.3
			c1.9,0.7,3.6,1.8,5,3.1l1.9,1.8c1.7,0.3,3.3,1.1,4.6,2.4l12.4,11.8c1.2,1.1,1.2,3,0.1,4.2c-0.5,0.6-1.3,0.9-2.1,0.9h-0.1
			c-0.7,0-1.5-0.3-2-0.8c-0.1,0.3-0.2,0.6-0.3,0.9c-0.4,1.1-1,2.1-1.9,2.9h10.4C196.6,428.6,197.4,427,197.7,425.3L197.7,425.3z"/>
		<path class="st3" d="M172.7,417.5c2,1.9,2.9,4.5,2.6,7.2l1.4,1.3c0.5,0.5,1.3,0.8,2,0.8h0.1c1.7,0,3-1.4,2.9-3.1
			c0-0.8-0.4-1.5-0.9-2.1l-12.4-11.8c-1.7-1.6-3.9-2.5-6.2-2.5H162L172.7,417.5z"/>
		<path d="M186.9,426.9c0.1-0.3,0.2-0.6,0.3-0.9c0.8-3.1-0.1-6.3-2.4-8.5l-10.5-10l-1.9-1.8c-2.8-2.6-6.4-4.1-10.2-4.1l0,0
			c-1.5,0-3,0.2-4.5,0.7l-1.7,0.5c1.6,0.7,3.1,1.7,4.3,2.9l1.7,1.6h0.1c2.3,0,4.6,0.9,6.2,2.5l12.4,11.8c1.2,1.1,1.2,3,0.1,4.2
			c-0.5,0.6-1.3,0.9-2.1,0.9h-0.1c-0.7,0-1.5-0.3-2-0.8l-1.4-1.3c-0.2,1.9-1,3.7-2.4,5.1h12C185.8,429,186.4,428,186.9,426.9z"/>
		<path class="st3" d="M146.9,424.9l3.4-3.7c2.3-2.5,6.3-2.7,8.8-0.4c0,0,0,0,0,0l5.5,5.1c0.5,0.5,1.3,0.8,2,0.8h0.1
			c1.7,0,3-1.4,2.9-3.1c0-0.8-0.4-1.5-0.9-2.1l-12.4-11.8c-1.7-1.6-3.9-2.5-6.2-2.5c-0.9,0-1.9,0.1-2.7,0.4L134,412v17.7h2
			C140.1,429.7,144.1,427.9,146.9,424.9z"/>
		<path d="M174.8,426.9c0.3-0.7,0.4-1.4,0.5-2.2c0.3-2.7-0.7-5.4-2.6-7.2L162,407.3l-1.7-1.6c-3.8-3.6-9.2-5-14.2-3.5l-0.4,0.1
			l-5,1.6L134,406v6l13.4-4.3c0.9-0.3,1.8-0.4,2.7-0.4c2.3,0,4.6,0.9,6.2,2.5l12.4,11.8c1.2,1.1,1.2,3,0.1,4.2
			c-0.5,0.6-1.3,0.9-2.1,0.9h-0.1c-0.7,0-1.5-0.3-2-0.8l-5.5-5.1c-2.5-2.3-6.5-2.2-8.8,0.3c0,0,0,0,0,0l-3.4,3.7
			c-2.8,3.1-6.8,4.8-10.9,4.8h-2v5.7h2c3,0,5.9-0.7,8.6-1.9c0.3-0.1,0.6-0.3,0.8-0.4v-3.3h4.7c0.3-0.3,0.7-0.6,1-1l0.4-0.5l2.9-3.2
			c0.1-0.1,0.2-0.2,0.4-0.2c0.1,0,0.3,0,0.4,0.1l4.1,3.8l1,0.9H173C173.8,429,174.4,428,174.8,426.9z"/>
		<path class="st1" d="M23.9,365.2v16.9c0,28.5,22.7,51.6,50.7,51.6h53.6v-29.4H75.3c-11.4,0-20.6-9.2-20.6-20.6v-72.9H23.9V365.2z"
			/>
		<path d="M51.1,434.4c7.4,3.4,15.4,5.1,23.5,5.1H134v-40.8H75.3c-8.2,0-14.9-6.7-14.9-14.9v-72.9h-5.7v72.9
			c0,11.4,9.2,20.6,20.6,20.6h52.9v29.4H74.6c-28,0-50.7-23.2-50.7-51.6v-71.2h-5.7v71.2c-0.1,15.1,5.8,29.7,16.3,40.5
			c3.3,3.3,6.9,6.3,10.9,8.7C47.2,432.5,49.2,433.5,51.1,434.4z"/>
		<line class="st0" x1="432.4" y1="449.1" x2="432.4" y2="449.1"/>
		<polygon points="414.9,446.2 414.9,451.9 432.4,451.9 432.4,449.1 432.4,446.2 		"/>
		<polygon points="145.3,446.2 137.5,446.2 129.8,446.2 109.2,446.2 101.4,446.2 51.1,446.2 45.4,446.2 0,446.2 0,451.9 45.4,451.9 
			106.7,451.9 132.3,451.9 145.3,451.9 		"/>
		<polygon class="st6" points="151.1,435.5 151.1,446.2 189.4,446.2 244.1,446.2 244.1,435.5 232.1,435.5 		"/>
		<path d="M244.1,446.2h-93.1v-10.7h81c-1.6,0-2.9-1.3-2.9-2.9c0-0.2,0-0.4,0.1-0.6l0.5-2.2h-84.5v22.1h98.8V446.2z"/>
		<rect x="249.9" y="435.5" class="st6" width="159.3" height="10.7"/>
		<path d="M414.9,446.2V433l-0.1,0.3c-0.3,1.3-1.5,2.2-2.8,2.2h-2.9v10.7H249.9v-10.7h-5.7V452h170.7V446.2z"/>
		<path class="st6" d="M278,294.8h159.4l-7.2-9.7H268.8l-33.2,144.6h9.1L275.2,297c0-0.2,0.1-0.3,0.1-0.5
			C275.8,295.5,276.8,294.8,278,294.8z"/>
		<path d="M235.6,404.4l-5.8,25.4l-0.5,2.2c-0.4,1.5,0.6,3.1,2.1,3.4c0.2,0,0.4,0.1,0.6,0.1h15c-0.9,0-1.7-0.4-2.2-1.1
			c-0.5-0.7-0.8-1.6-0.6-2.4l31-135l-30.5,132.8h-9.1l33.2-144.6h161.3l7.2,9.7H278c-1.2,0-2.2,0.7-2.6,1.8c0.4-1.1,1.5-1.8,2.6-1.8
			h165c1.6,0,2.9,1.3,2.9,2.9c0,0.2,0,0.4-0.1,0.6l-0.1,0.3c0.3-0.9,0.2-1.8-0.4-2.6l-11.4-15.4c-0.5-0.7-1.4-1.2-2.3-1.2H266.6
			c-1.3,0-2.5,0.9-2.8,2.2l-26.9,117L235.6,404.4z"/>
		<path class="st6" d="M409.8,429.8l29.6-129.2H280.3l-29.6,129.2H409.8z M333.8,365.2c1.3-6.2,7.4-11.2,13.6-11.2s10.2,5,8.9,11.2
			s-7.4,11.2-13.6,11.2S332.5,371.4,333.8,365.2L333.8,365.2z"/>
		<path d="M445.2,295.9c-0.5-0.7-1.4-1.1-2.2-1.1H278c-1.2,0-2.2,0.7-2.6,1.8c-0.1,0.2-0.1,0.3-0.1,0.5l-31,135
			c-0.2,0.8,0,1.7,0.6,2.4c0.5,0.7,1.4,1.1,2.2,1.1h165c1.3,0,2.5-0.9,2.8-2.2l0.1-0.3l30.8-134.4l0.1-0.3
			C446,297.5,445.8,296.6,445.2,295.9z M250.6,429.8l29.6-129.2h159.1l-29.6,129.2H250.6z"/>
		
			<ellipse transform="matrix(0.7413 -0.6712 0.6712 0.7413 -155.8546 326.0308)" class="st7" cx="345" cy="365.2" rx="14.9" ry="12.1"/>
		<path d="M105,146.6h0.6c3.5,0,6.3,2.8,6.3,6.3v27.8c0,3.5-2.8,6.3-6.3,6.3H105c-3.5,0-6.3-2.8-6.3-6.3v-27.8
			C98.7,149.5,101.5,146.6,105,146.6z"/>
		<path d="M151.9,146.6h0.6c3.5,0,6.3,2.8,6.3,6.3v27.8c0,3.5-2.8,6.3-6.3,6.3h-0.6c-3.5,0-6.3-2.8-6.3-6.3v-27.8
			C145.6,149.5,148.4,146.6,151.9,146.6z"/>
		<path d="M125.5,258.7c7.3,0,13.2-5.9,13.2-13.2c0,0,0,0,0,0h-26.5C112.3,252.7,118.2,258.7,125.5,258.7
			C125.5,258.7,125.5,258.7,125.5,258.7z"/>
		<path d="M146.9,219.2c0-6.7-5.4-12.1-12.1-12.1h-9.3v5.7h9.3c3.5-0.1,6.5,2.6,6.6,6.1s-2.6,6.5-6.1,6.6c-0.2,0-0.3,0-0.5,0h-9.3
			v5.7h9.3C141.5,231.3,146.9,225.9,146.9,219.2z"/>
		<path class="st4" d="M55.5,165.4l-2.4-2.5h-4.8c-8.4,0.2-15,7.2-14.8,15.5c0.2,8.1,6.7,14.6,14.8,14.8h4.8v2.8l0,0l5.9-15.3
			L55.5,165.4z"/>
		<path d="M48.3,198.9h4.8v-5.7h-4.8c-8.4-0.2-15-7.2-14.8-15.5c0.2-8.1,6.7-14.6,14.8-14.8h4.8v-5.7h-4.8
			c-11.5,0-20.9,9.3-20.9,20.8c0,9.7,6.6,18.1,16,20.3C45,198.7,46.6,198.9,48.3,198.9z"/>
		<polygon class="st8" points="53.1,170.7 53.1,170.7 53.1,170.7 		"/>
		<path d="M53.1,167.8h-2.4c-6.5,0-11.7,5.3-11.7,11.8h5.7c0-1,0.2-1.9,0.7-2.8c0.8-1.5,2.2-2.6,3.8-3c0.5-0.1,1-0.2,1.5-0.2h2.4
			v-2.9l0,0L53.1,167.8z"/>
	</g>
</g>
</svg>
